…
    ## See spec(...) for full column specifications.

``` r
print(transit_df)
```

    ## # A tibble: 1,868 x 18
    ##    line  station_name station_latitude station_longitu~ route1 route2 route3
    ##    <chr> <chr>                   <dbl>            <dbl> <chr>  <chr>  <chr> 
    ##  1 4 Av~ 25th St                  40.7            -74.0 R      <NA>   <NA>  
    ##  2 4 Av~ 25th St                  40.7            -74.0 R      <NA>   <NA>  
    ##  3 4 Av~ 36th St                  40.7            -74.0 N      R      <NA>  
    ##  4 4 Av~ 36th St                  40.7            -74.0 N      R      <NA>  
    ##  5 4 Av~ 36th St                  40.7            -74.0 N      R      <NA>  
    ##  6 4 Av~ 45th St                  40.6            -74.0 R      <NA>   <NA>  
    ##  7 4 Av~ 45th St                  40.6            -74.0 R      <NA>   <NA>  
    ##  8 4 Av~ 45th St                  40.6            -74.0 R      <NA>   <NA>  
    ##  9 4 Av~ 45th St                  40.6            -74.0 R      <NA>   <NA>  
    ## 10 4 Av~ 53rd St                  40.6            -74.0 R      <NA>   <NA>  
    ## # ... with 1,858 more rows, and 11 more variables: route4 <chr>, route5 <chr>,
    ## #   route6 <chr>, route7 <chr>, route8 <dbl>, route9 <dbl>, route10 <dbl>,
    ## #   route11 <dbl>, entrance_type <chr>, entry <chr>, ada <lgl>
…
``` r
left_join(pols_df, month_df,by = "month") %>%
  relocate(year, month_name) %>% 
  select(-month)
```

    ## # A tibble: 822 x 11
    ##     year month_name   day prez_gop gov_gop sen_gop rep_gop prez_dem gov_dem
    ##    <int> <chr>      <int>    <dbl>   <dbl>   <dbl>   <dbl>    <dbl>   <dbl>
    ##  1  1947 Jan           15        0      23      51     253        1      23
    ##  2  1947 Feb           15        0      23      51     253        1      23
    ##  3  1947 Mar           15        0      23      51     253        1      23
    ##  4  1947 Apr           15        0      23      51     253        1      23
    ##  5  1947 May           15        0      23      51     253        1      23
    ##  6  1947 Jun           15        0      23      51     253        1      23
    ##  7  1947 Jul           15        0      23      51     253        1      23
    ##  8  1947 Aug           15        0      23      51     253        1      23
    ##  9  1947 Sep           15        0      23      51     253        1      23
    ## 10  1947 Oct           15        0      23      51     253        1      23
    ## # ... with 812 more rows, and 2 more variables: sen_dem <dbl>, rep_dem <dbl>

``` r
print(pols_df)
```

    ## # A tibble: 822 x 11
    ##     year month   day prez_gop gov_gop sen_gop rep_gop prez_dem gov_dem sen_dem
    ##    <int> <int> <int>    <dbl>   <dbl>   <dbl>   <dbl>    <dbl>   <dbl>   <dbl>
    ##  1  1947     1    15        0      23      51     253        1      23      45
    ##  2  1947     2    15        0      23      51     253        1      23      45
    ##  3  1947     3    15        0      23      51     253        1      23      45
    ##  4  1947     4    15        0      23      51     253        1      23      45
    ##  5  1947     5    15        0      23      51     253        1      23      45
    ##  6  1947     6    15        0      23      51     253        1      23      45
    ##  7  1947     7    15        0      23      51     253        1      23      45
    ##  8  1947     8    15        0      23      51     253        1      23      45
    ##  9  1947     9    15        0      23      51     253        1      23      45
    ## 10  1947    10    15        0      23      51     253        1      23      45
    ## # ... with 812 more rows, and 1 more variable: rep_dem <dbl>
…
